Time [s], Xpos [mm], Ypos [mm], XVel [mm/s], Yvel [mm/s], Thetax [rad], Thetaxdot [rad/s], Thetay [rad], Thetaydot [rad/s]
0.003181, 0.0, 0.0, 0.0, 0.0, 
0.186046, 0.0, 0.0, 0.0, 0.0, 
0.256702, 0.0, 0.0, 0.0, 0.0, 
0.326943, 0.0, 0.0, 0.0, 0.0, 
0.397306, 0.0, 0.0, 0.0, 0.0, 
0.544569, 0.0, 0.0, 0.0, 0.0, 
0.615248, 0.0, 0.0, 0.0, 0.0, 
0.687097, 0.0, 0.0, 0.0, 0.0, 
0.76516, 0.0, 0.0, 0.0, 0.0, 
0.842292, 0.0, 0.0, 0.0, 0.0, 
0.917095, 0.0, 0.0, 0.0, 0.0, 
0.994755, 0.0, 0.0, 0.0, 0.0, 
1.074583, 0.0, 0.0, 0.0, 0.0, 
1.346445, 0.0, 0.0, 0.0, 0.0, 
1.414766, 0.0, 0.0, 0.0, 0.0, 
1.555757, 0.0, 0.0, 0.0, 0.0, 
1.625814, 0.0, 0.0, 0.0, 0.0, 
1.695087, 0.0, 0.0, 0.0, 0.0, 
1.766555, 0.0, 0.0, 0.0, 0.0, 
1.837036, 0.0, 0.0, 0.0, 0.0, 
1.907163, 0.0, 0.0, 0.0, 0.0, 
1.976974, 0.0, 0.0, 0.0, 0.0, 
2.046953, 0.0, 0.0, 0.0, 0.0, 
2.117222, 0.0, 0.0, 0.0, 0.0, 
2.192144, 0.0, 0.0, 0.0, 0.0, 
2.262366, 0.0, 0.0, 0.0, 0.0, 
2.344177, 0.0, 0.0, 0.0, 0.0, 
2.424184, 0.0, 0.0, 0.0, 0.0, 
2.497255, 0.0, 0.0, 0.0, 0.0, 
2.57348, 0.0, 0.0, 0.0, 0.0, 
3.296807, -1.14, -16.2, 9.729534e-06, 0.0, 
3.466039, -1.96, -17.32, -7.778481e-06, -1.711273e-05, 
3.63687, -5.27, -17.86, -1.543447e-05, 0.0, 
3.816844, -7.7, -16.47, 0.0, 1.407067e-05, 
3.964639, -6.57, -13.81, 0.0, 2.88548e-05, 
4.114837, -5.89, -11.31, 9.472679e-06, 2.683914e-05, 
4.277102, -10.29, -6.31, -1.558124e-05, 2.181363e-05, 
4.447136, -14.48, -6.51, -3.260349e-05, -2.018322e-05, 
4.664597, -18.1, 1.01, 8.087874e-06, 5.338078e-05, 
4.816617, -19.54, 5.64, 4.160639e-05, 4.960793e-05, 
5.567195, 2.02, 7.66, 9.535527e-05, -1.076594e-05, 
5.724848, 8.58, 11.65, 1.615254e-05, 0.0001760619, 
5.856889, 14.53, 12.08, 2.573646e-05, -2.792686e-05, 
6.004655, 12.31, 6.24, 0.0, -7.784857e-05, 
6.146716, 2.79, 4.29, -4.165716e-05, 2.910295e-05, 
6.30498, -5.64, 6.58, -1.853094e-05, -6.738538e-06, 
6.484507, -12.36, 0.64, -1.778203e-05, 4.849656e-06, 
6.614736, -13.34, 7.09, 0.0, 0.0001417732, 
6.746529, -10.24, 14.55, 4.928464e-05, 8.108111e-05, 
6.896901, -0.93, 18.77, 4.078461e-05, -4.466877e-05, 
7.646732, -13.13, 5.4, 2.186003e-05, -6.75675e-05, 
7.804866, -4.03, 4.29, 6.620422e-05, 2.679699e-05, 
7.967138, -1.76, 6.75, -1.918047e-05, -4.184826e-05, 
8.145073, -4.65, 5.3, -8.426052e-06, 1.179646e-05, 
8.327058, -4.55, 6.41, -8.097197e-06, -3.886644e-05, 
8.475852, -5.07, 4.93, 1.000194e-05, -6.001243e-06, 
8.627073, -2.07, 7.53, 0.0, 1.107422e-05, 
8.785224, -2.27, 5.97, -4.839968e-05, -1.092899e-05, 
8.956683, -4.65, 5.81, 1.703843e-05, 1.084265e-05, 
9.15715, -0.67, 8.13, 5.253586e-05, -1.414421e-05, 
9.885228, -5.17, 6.11, 3.259858e-05, 1.086622e-05, 
10.06725, -1.4, 6.18, -9.249259e-06, -9.249259e-06, 
10.22575, -4.03, 5.97, -1.60617e-05, 1.606166e-05, 
10.35719, -4.29, 5.6, 0.0, -8.186169e-06, 
10.51668, -4.45, 6.11, 0.0, -1.572325e-05, 
10.68492, -4.5, 5.5, 1.747639e-05, -3.495278e-05, 
10.83716, -3.83, 7.83, 3.10078e-05, 2.63566e-05, 
11.00701, -4.03, 6.95, 2.919173e-05, 0.0, 
11.13662, -4.19, 7.22, 2.002802e-05, -2.803932e-05, 
11.27662, -4.19, 7.16, 9.803865e-06, 0.0, 
11.4168, -4.24, 6.65, 0.0, -5.84107e-06, 
12.15591, -4.34, 7.16, 0.0, -4.811582e-06, 
12.2972, -4.19, 5.7, -1.734471e-05, -1.103755e-05, 
12.45497, -4.08, 5.6, 0.0, 0.0, 
12.6071, -4.08, 5.77, 1.862515e-05, 0.0, 
12.79422, -4.19, 5.64, 0.0, 0.0, 
12.91656, -3.88, 5.47, 1.608232e-05, 0.0, 
13.06506, -3.46, 5.27, -1.975507e-05, -5.926553e-06, 
13.21663, -2.95, 5.1, 1.759632e-05, -5.278938e-06, 
13.37722, -3.93, 5.06, -7.773624e-06, 4.664138e-06, 
13.54723, -3.57, 5.06, 0.0, -1.084097e-05, 
13.72474, -3.41, 5.16, -3.239392e-05, -6.478776e-06, 
14.01394, 0.0, 0.0, 0.0, 0.0, 
14.08457, 0.0, 0.0, 0.0, 0.0, 
14.152, 0.0, 0.0, 0.0, 0.0, 
14.21502, 0.0, 0.0, 0.0, 0.0, 
14.35678, 0.0, 0.0, 0.0, 0.0, 
14.43198, 0.0, 0.0, 0.0, 0.0, 
