0,0.9073992673992674
2,0.9194871794871795
5,0.9331868131868132
7,0.9581684981684981
10,0.9831501831501831
12,1.008131868131868
15,1.0315018315018314
17,1.054871794871795
20,1.0782417582417583
22,1.1024175824175824
24,1.124981684981685
27,1.1483516483516483
30,1.17010989010989
32,1.1926739926739927
35,1.2144322344322345
37,1.2361904761904763
40,1.2571428571428571
42,1.278901098901099
44,1.2982417582417582
47,1.32
49,1.3401465201465201
52,1.3610989010989012
55,1.3812454212454213
57,1.402197802197802
60,1.4207326007326007
62,1.44007326007326
65,1.4594139194139195
67,1.4779487179487178
70,1.494871794871795
72,1.5158241758241757
74,1.5335531135531135
77,1.552087912087912
80,1.569010989010989
82,1.5891575091575092
85,1.6044688644688645
87,1.6221978021978023
89,1.6399267399267399
92,1.6576556776556777
95,1.6745787545787545
97,1.6915018315018315
99,1.7076190476190476
102,1.7237362637362637
105,1.73985347985348
107,1.7543589743589743
110,1.772087912087912
112,1.7873992673992674
114,1.8027106227106227
117,1.8172161172161172
120,1.8317216117216117
122,1.8478388278388278
125,1.863150183150183
127,1.8768498168498169
130,1.8921611721611722
132,1.905054945054945
134,1.9203663003663003
137,1.9348717948717948
140,1.9493772893772894
142,1.9614652014652014
145,1.9751648351648352
147,1.9888644688644688
149,2.0025641025641026
152,2.0146520146520146
155,2.029157509157509
157,2.0404395604395607
160,2.054139194139194
162,2.0670329670329672
164,2.0791208791208793
167,2.0912087912087913
170,2.100879120879121
172,2.1153846153846154
175,2.1266666666666665
177,2.1395604395604395
179,2.150842490842491
182,2.162930402930403
185,2.175018315018315
187,2.1854945054945056
190,2.1967765567765567
192,2.2088644688644687
195,2.2193406593406593
197,2.22981684981685
199,2.2402930402930403
202,2.2515750915750914
205,2.262051282051282
207,2.270915750915751
210,2.2813919413919415
212,2.2926739926739925
214,2.3023443223443225
217,2.312014652014652
220,2.3224908424908426
222,2.332161172161172
225,2.3418315018315017
227,2.352307692307692
229,2.361172161172161
232,2.3684249084249083
235,2.37970695970696
237,2.388571428571429
240,2.3982417582417583
242,2.407106227106227
244,2.4151648351648354
247,2.424835164835165
250,2.4336996336996335
252,2.4425641025641025
255,2.4506227106227105
257,2.46029304029304
260,2.4683516483516486
262,2.4747985347985346
265,2.4844688644688646
267,2.4925274725274726
269,2.5005860805860807
272,2.5078388278388277
275,2.5167032967032967
277,2.523956043956044
280,2.532014652014652
282,2.5392673992673993
285,2.5473260073260073
287,2.5545787545787544
290,2.5626373626373624
292,2.569084249084249
295,2.5763369963369964
297,2.5835897435897435
299,2.59003663003663
302,2.5972893772893775
305,2.6053479853479855
307,2.6117948717948716
310,2.619047619047619
312,2.6254945054945056
315,2.631135531135531
317,2.639194139194139
320,2.6456410256410257
322,2.652087912087912
325,2.6585347985347987
327,2.664175824175824
329,2.6682051282051282
332,2.6778754578754578
334,2.6835164835164833
337,2.6883516483516483
340,2.693992673992674
342,2.7012454212454213
345,2.706886446886447
347,2.7133333333333334
350,2.718974358974359
352,2.7246153846153844
355,2.7294505494505494
357,2.735897435897436
359,2.740732600732601
362,2.7455677655677655
364,2.752014652014652
367,2.7576556776556775
370,2.7632967032967035
372,2.768131868131868
375,2.7713553113553115
377,2.7786080586080586
380,2.784249084249084
382,2.788278388278388
385,2.793919413919414
387,2.797142857142857
390,2.8035897435897437
392,2.808424908424908
394,2.813260073260073
397,2.818095238095238
399,2.8229304029304028
402,2.8277655677655678
405,2.8317948717948718
407,2.8366300366300368
410,2.8414652014652013
412,2.8454945054945053
415,2.848717948717949
417,2.8543589743589743
420,2.8583882783882784
422,2.8616117216117214
424,2.8672527472527474
427,2.8712820512820514
429,2.8745054945054944
432,2.88014652014652
435,2.884175824175824
437,2.8873992673992674
440,2.8922344322344324
442,2.8962637362637365
445,2.9002930402930405
447,2.9035164835164835
450,2.9075457875457875
452,2.9115750915750915
454,2.914798534798535
457,2.918021978021978
459,2.922857142857143
462,2.925274725274725
465,2.93010989010989
467,2.933333333333333
470,2.937362637362637
472,2.9397802197802196
475,2.9438095238095237
477,2.947032967032967
480,2.95025641025641
482,2.9518681318681317
484,2.958315018315018
487,2.9607326007326007
489,2.963956043956044
492,2.967985347985348
494,2.9712087912087912
497,2.9744322344322343
500,2.976043956043956
502,2.9800732600732602
505,2.9824908424908423
507,2.9865201465201463
510,2.988937728937729
512,2.992967032967033
515,2.9945787545787548
517,2.997802197802198
520,3.0002197802197803
522,3.0034432234432233
525,3.0034432234432233
527,3.009084249084249
530,3.0115018315018314
532,3.014725274725275
534,3.017948717948718
537,3.0195604395604394
539,3.022783882783883
542,3.0252014652014654
545,3.0284249084249084
547,3.0292307692307694
550,3.0316483516483514
552,3.0356776556776555
555,3.038095238095238
557,3.0405128205128205
560,3.042124542124542
562,3.046153846153846
565,3.046959706959707
567,3.05018315018315
570,3.0526007326007325
572,3.054212454212454
575,3.055018315018315
577,3.059047619047619
580,3.0614652014652015
582,3.063882783882784
585,3.0654945054945055
587,3.067106227106227
590,3.0703296703296705
592,3.0727472527472526
594,3.0743589743589745
597,3.0767765567765566
599,3.0808058608058606
602,3.0808058608058606
604,3.083223443223443
607,3.0856410256410256
610,3.087252747252747
612,3.088058608058608
615,3.092087912087912
617,3.0936996336996336
620,3.095311355311355
622,3.0977289377289376
625,3.10014652014652
627,3.10014652014652
630,3.1025641025641026
632,3.104175824175824
635,3.1065934065934067
637,3.1065934065934067
640,3.1098168498168497
642,3.111428571428571
645,3.1138461538461537
647,3.1154578754578757
650,3.117069597069597
652,3.1178754578754577
655,3.12029304029304
657,3.1219047619047617
659,3.1235164835164837
662,3.125128205128205
664,3.1267399267399267
667,3.1283516483516483
669,3.1299633699633698
672,3.1315750915750917
675,3.1323809523809523
677,3.1323809523809523
680,3.1356043956043957
682,3.1372161172161173
685,3.138827838827839
687,3.1404395604395603
690,3.1420512820512823
692,3.142857142857143
695,3.1444688644688643
697,3.1452747252747253
700,3.146886446886447
702,3.1493040293040293
705,3.1501098901098903
707,3.151721611721612
710,3.1525274725274723
712,3.1541391941391943
715,3.154945054945055
717,3.1565567765567764
719,3.1581684981684983
722,3.1581684981684983
724,3.1613919413919414
727,3.1621978021978023
729,3.163003663003663
732,3.163809523809524
734,3.1662271062271063
737,3.1662271062271063
740,3.167838827838828
742,3.168644688644689
745,3.1694505494505494
747,3.171062271062271
750,3.172673992673993
752,3.1734798534798534
755,3.1742857142857144
757,3.175897435897436
760,3.176703296703297
762,3.179120879120879
765,3.179120879120879
767,3.179120879120879
770,3.1815384615384614
772,3.1815384615384614
775,3.183956043956044
777,3.183956043956044
780,3.183956043956044
782,3.183956043956044
784,3.187179487179487
787,3.188791208791209
789,3.188791208791209
792,3.1904029304029304
794,3.1904029304029304
797,3.192014652014652
799,3.192820512820513
802,3.1944322344322345
805,3.1944322344322345
807,3.196043956043956
810,3.196849816849817
812,3.196849816849817
815,3.204102564102564
817,3.1992673992673994
820,3.1992673992673994
822,3.20007326007326
825,3.2016849816849815
827,3.2016849816849815
830,3.2032967032967035
832,3.2032967032967035
835,3.204102564102564
837,3.2057142857142855
840,3.2057142857142855
842,3.2073260073260075
844,3.2073260073260075
847,3.208131868131868
849,3.208937728937729
852,3.2097435897435895
854,3.2097435897435895
857,3.2097435897435895
859,3.212967032967033
862,3.212967032967033
865,3.212161172161172
867,3.2145787545787545
870,3.2153846153846155
872,3.2153846153846155
875,3.216190476190476
877,3.216190476190476
880,3.217802197802198
882,3.2186080586080585
885,3.22021978021978
887,3.2194139194139195
890,3.213772893772894
892,3.221831501831502
895,3.221025641025641
897,3.221831501831502
900,3.2226373626373626
902,3.232307692307692
905,3.224249084249084
907,3.224249084249084
909,3.225054945054945
912,3.225860805860806
914,3.2266666666666666
917,3.2274725274725276
919,3.2274725274725276
922,3.228278388278388
924,3.228278388278388
927,3.2315018315018316
930,3.229084249084249
932,3.22989010989011
935,3.2306959706959706
937,3.232307692307692
940,3.229084249084249
942,3.232307692307692
945,3.233113553113553
947,3.233113553113553
950,3.233919413919414
952,3.233919413919414
955,3.2347252747252746
957,3.2355311355311356
960,3.2355311355311356
962,3.2355311355311356
965,3.2355311355311356
967,3.2355311355311356
969,3.2355311355311356
972,3.2387545787545786
974,3.2387545787545786
977,3.241978021978022
979,3.2395604395604396
982,3.2395604395604396
984,3.2403663003663006
987,3.241172161172161
989,3.241978021978022
992,3.241978021978022
995,3.241978021978022
997,3.241978021978022
1000,3.2427838827838826
1002,3.2403663003663006
1005,3.2443956043956046
1007,3.2443956043956046
1010,3.2443956043956046
1012,3.245201465201465
1015,3.246007326007326
1017,3.245201465201465
1020,3.246007326007326
1022,3.246007326007326
1025,3.246007326007326
1027,3.2476190476190476
1030,3.2476190476190476
1032,3.2476190476190476
1035,3.2484249084249086
1037,3.2484249084249086
1040,3.2476190476190476
1042,3.2484249084249086
1045,3.249230769230769
1047,3.2484249084249086
1050,3.25003663003663
1052,3.254065934065934
1055,3.25003663003663
1057,3.2508424908424907
1060,3.2516483516483516
1062,3.2516483516483516
1064,3.2548717948717947
1067,3.2524542124542126
1069,3.2516483516483516
1072,3.2524542124542126
1074,3.253260073260073
1077,3.2516483516483516
1079,3.254065934065934
1082,3.254065934065934
1084,3.254065934065934
1087,3.2548717948717947
1090,3.2524542124542126
1092,3.2548717948717947
1095,3.2556776556776557
1097,3.2556776556776557
1100,3.2556776556776557
1102,3.2548717948717947
1105,3.2564835164835166
1107,3.2564835164835166
1110,3.257289377289377
1112,3.257289377289377
1115,3.2589010989010987
1117,3.257289377289377
1120,3.258095238095238
1122,3.258095238095238
1125,3.2589010989010987
1127,3.261318681318681
1130,3.2589010989010987
1132,3.2589010989010987
1135,3.2597069597069597
1137,3.2589010989010987
1140,3.254065934065934
1142,3.2605128205128207
1145,3.2597069597069597
1147,3.2605128205128207
1150,3.2605128205128207
1152,3.2548717948717947
1155,3.261318681318681
1157,3.261318681318681
1160,3.261318681318681
1162,3.261318681318681
1165,3.266153846153846
1167,3.261318681318681
1170,3.261318681318681
1172,3.261318681318681
1175,3.261318681318681
1177,3.261318681318681
1180,3.261318681318681
1182,3.261318681318681
1185,3.261318681318681
1187,3.2645421245421247
1189,3.265347985347985
1192,3.2645421245421247
1194,3.2645421245421247
1197,3.2645421245421247
1199,3.2645421245421247
1202,3.266153846153846
1204,3.2645421245421247
1207,3.266153846153846
1209,3.265347985347985
1212,3.265347985347985
1214,3.2677655677655677
1217,3.266153846153846
1220,3.266153846153846
1222,3.266959706959707
1225,3.266959706959707
1227,3.266959706959707
1230,3.266959706959707
1232,3.2677655677655677
1235,3.2677655677655677
1237,3.2677655677655677
1240,3.265347985347985
1242,3.2677655677655677
1245,3.2677655677655677
1247,3.2677655677655677
